metoda,polprev
1,239
1,235
1,228
1,238
1,229
1,224
1,242
1,231
1,241
1,240
1,251
1,227
1,231
1,227
1,217
1,235
1,233
1,225
1,241
1,238
2,245
2,248
2,249
2,256
2,231
2,241
2,256
2,239
2,244
2,244
2,241
2,240
2,245
2,239
2,235
2,259
2,234
2,230
2,242
2,259
2,241
2,233
2,248
2,224
2,246
2,236
2,237
2,230
2,240
2,232
