premer,visina
3.75,29.8
1.51,15.5
2.3,20
3.2,22.5
5.25,29
7.5,32
8.95,35
4.25,22.5
8.3,35
3.9,24
2.15,17.5
3.89,30
2.62,21
1.99,17
1.46,11
6.86,28
1.39,12.5
4.87,25
6.4,27
2.43,13
4.3,29
2.72,23
3.4,23
4.04,26
1.11,9.5
4.49,25
5.65,27.5
3.11,25
4.25,27
1.77,19
3.35,20
4.05,22
6.9,30
4.65,26
3.05,21
3.05,25
3.78,28
4.97,30
3.77,28
2.62,23
3.1,26
3.85,27
9.4,36
10.15,39
3.15,24.5
3.15,24.5
6.02,32
4.71,30
6.37,28.5
1.25,10
